c01 = 17.3;
c00 = -18.47;
c0 = 9.8;
r0 = 16.5;
hc = 3.2;
l0 = 212;
c1 = 9.49;
l1 = 20;
l2 = 139+116;
c2 = 9.3;
cv = 13.5;
wc = 8;

dx = .5;
dy = .5;
dz = .2;

Point(1) = {0, 0, c0, 1.0};

Extrude {-r0, 0, 0} {
  Point{1};
  Layers{r0 / dx + 1};
  Recombine;
}

Extrude {l0, 0, c1-c0} {
  Point{1};
  Layers{l0 / dx};
  Recombine;
}

Extrude {(l1-wc)/2, 0, 0} {
  Point{3};
  Layers{(l1-wc)/2 / dx};
  Recombine;
}
Extrude {wc, 0, 0} {
  Point{4};
  Layers{wc / dx};
  Recombine;
}
Extrude {(l1-wc)/2, 0, 0} {
  Point{5};
  Layers{(l1-wc)/2 / dx};
  Recombine;
}
Extrude {l2, 0, c2-c1} {
  Point{6};
  Layers{l2 / dx};
  Recombine;
}
Extrude {0, 0, hc} {
  Line{1, 2, 4, 3, 5, 6};
  Layers{hc / dz};
  Recombine;
}
Extrude {0, wc, 0} {
  Surface{10, 14, 22, 18, 26, 30};
  Layers{wc / dy};
  Recombine;
}
Extrude {0, 0, cv-hc-c1} {
  Surface{91, 113, 135};
  Layers{(cv-hc-c1) / dz};
  Recombine;
}
Extrude {0, 0, 3} {
  Surface{184, 206, 228};
  Layers{3 / dz * 5};
  Recombine;
}
Extrude {0, .2, 0} {
  Surface{245, 267, 289};
  Layers{Ceil(.2 / dy)};
  Recombine;
}
Extrude {0, 4, 0} {
  Surface{360, 338, 316};
  Layers{4 / dy};
  Recombine;
}
Extrude {0, 0, -(cv-hc-c1)} {
  Surface{369, 391, 413};
  Layers{(cv-hc-c1) / dz};
  Recombine;
}
Extrude {0, 0, -hc} {
  Surface{448, 470, 492};
  Layers{hc / dz};
  Recombine;
}
Extrude {0, 500, .1} {
  Surface{531};
  Layers{500 / dy};
  Recombine;
}
Extrude {0, -(r0-wc)/2, 0} {
  Surface{10};
  Layers{(r0-wc)/2 / dy};
  Recombine;
}
Extrude {0, (r0-wc)/2, 0} {
  Surface{52};
  Layers{(r0-wc)/2 / dy};
  Recombine;
}
Extrude {0, 0, c00-c0} {
  Surface{589, 39, 611};
  Layers{(c00-c0) / dz / 5};
  Recombine;
}
Extrude {0, 0, c01-(hc+c0)} {
  Surface{597, 47, 619};
  Layers{(c01-(hc+c0)) / dz};
  Recombine;
}
Physical Surface("inlet") = {646, 690};
Physical Surface("atmosphere") = {712, 734, 756, 421, 311, 250, 272, 333, 399, 377, 355, 294};
Physical Surface("walls") = {711, 733, 755, 593, 43, 615, 637, 659, 681, 668, 641, 685, 689, 667, 645, 601, 602, 707, 703, 725, 623, 747, 624, 751, 14, 69, 61, 74, 30, 149, 157, 162, 153, 580, 567, 571, 579, 575, 127, 26, 18, 22, 171, 193, 215, 237, 259, 281, 241, 175, 315, 425, 491, 487, 426, 404, 465, 443, 382, 553, 509, 514, 536, 558, 557, 505, 373, 439, 303, 325, 347, 351, 293, 227, 96, 118, 140, 501, 523, 545, 83, 105, 127, 140, 223, 118, 201, 96, 179, 303, 325, 347, 501, 435, 457, 523, 545, 479};
Physical Volume("mesh") = {28, 29, 30, 26, 1, 27, 31, 32, 33, 2, 6, 25, 5, 4, 3, 7, 10, 11, 8, 9, 12, 22, 19, 16, 23, 20, 15, 24, 14, 21, 17, 18, 13};
