pc = 10;
pch = pc*4;
dx = 0.5;
dz = 0.1;
dm = (.5 + (1.5-1.5*Sin(Pi/4))*2) / dz/2;

Point(1) = {0, 2, 10.68, 1.0};
Translate {0, 1.5*Cos(Pi/4), 1.5*Cos(Pi/4)} {
  Duplicata { Point{1}; }
}
Translate {0, -1.5*Cos(Pi/4), 1.5*Cos(Pi/4)} {
  Duplicata { Point{1}; }
}
Translate {0, -1.5*Cos(Pi/4), -1.5*Cos(Pi/4)} {
  Duplicata { Point{1}; }
}
Translate {0, 1.5*Cos(Pi/4), -1.5*Cos(Pi/4)} {
  Duplicata { Point{1}; }
}
Circle(1) = {2, 1, 5};
Circle(2) = {5, 1, 4};
Circle(3) = {4, 1, 3};
Circle(4) = {3, 1, 2};

Translate {0, .5, .5} {
  Duplicata { Point{1}; }
}
Translate {0, .5, -.5} {
  Duplicata { Point{1}; }
}
Translate {0, -.5, -.5} {
  Duplicata { Point{1}; }
}
Translate {0, -.5, .5} {
  Duplicata { Point{1}; }
}

Line(5) = {6, 9};
Line(6) = {9, 8};
Line(7) = {8, 7};
Line(8) = {7, 6};
Line(9) = {6, 2};
Line(10) = {9, 3};
Line(11) = {8, 4};
Line(12) = {7, 5};

Line Loop(13) = {9, 1, -12, 8};
Plane Surface(14) = {13};
Line Loop(15) = {5, 6, 7, 8};
Plane Surface(16) = {15};
Line Loop(17) = {9, -4, -10, -5};
Plane Surface(18) = {17};
Line Loop(19) = {6, 11, 3, -10};
Plane Surface(20) = {19};
Line Loop(21) = {7, 12, 2, -11};
Plane Surface(22) = {21};

Translate {0, 3.5, 0} {
  Duplicata { Surface{18, 14, 16, 22, 20}; }
}
Translate {0, 3.5, 0} {
  Duplicata { Surface{33, 28, 23, 43, 38}; }
}

Transfinite Line{1,2,3,4,27,32,35,36,48,51,49,50} = pc + 1;
Transfinite Line{5,6,7,8,25,46,41,30,59,65,70,54} = pc + 1;
Transfinite Line{1,3,8,6,46,35,32,30,65,49,51,54} = pch + 1;
Transfinite Line{9,10,11,12,24,-26,-31,-42,53,-60,-55,64} = 25 + 1 Using Progression 1 / 1.1;
Transfinite Surface "*";
Recombine Surface "*";

Extrude {311.2, 0, 9.41-9.18} {
  Surface{47, 52, 57, 62, 67, 33, 28, 23, 43, 38, 14, 16, 18, 20, 22};
  Layers{311.2/dx+1};
  Recombine;
}

Line(401) = {188, 180};
Line(402) = {193, 186};
Line(403) = {173, 156};
Line(404) = {168, 150};
Line Loop(405) = {401, -250, -402, -293};
Plane Surface(406) = {405};
Line Loop(407) = {404, -140, -403, -205};
Plane Surface(408) = {407};
Translate {0, 0, -(1.5-1.5*Sin(Pi/4)+.5)} {
  Duplicata { Point{216, 193, 186, 173, 156, 143}; }
}

Line(409) = {217, 216};
Line(410) = {217, 218};
Line(411) = {218, 193};
Line(412) = {218, 219};
Line(413) = {219, 186};
Line(414) = {219, 220};
Line(415) = {220, 173};
Line(416) = {220, 221};
Line(417) = {221, 156};
Line(418) = {221, 222};
Line(419) = {222, 143};

Line Loop(420) = {409, -382, -411, -410};
Plane Surface(421) = {420};
Line Loop(422) = {412, 413, -402, -411};
Plane Surface(423) = {422};
Line Loop(424) = {414, 415, 272, -413};
Plane Surface(425) = {424};
Line Loop(426) = {415, 403, -417, -416};
Plane Surface(427) = {426};
Line Loop(428) = {417, -162, -419, -418};
Plane Surface(429) = {428};

Extrude {0, -(1.5-1.5*Sin(Pi/4)+2.5), 0} {
  Point{217};
}
Extrude {0, (1.5-1.5*Sin(Pi/4)+2.5), 0} {
  Line{419};
}
Extrude {0, (1.5-1.5*Sin(Pi/4)+2.5), 0} {
  Point{138};
}
Line(436) = {226, 225};
Extrude {0, 0, .5} {
  Point{223};
}
Extrude {0, 0, 3.2} {
  Point{227};
}
Line(439) = {210, 228};
Line(440) = {216, 227};
Line Loop(441) = {438, -439, -360, 440};
Plane Surface(442) = {441};
Line Loop(443) = {440, -437, -430, 409};
Plane Surface(444) = {443};
Line Loop(445) = {435, 436, -433, -95};
Plane Surface(446) = {445};
Extrude {0, 0, .5} {
  Point{228};
}
Extrude {0, 0, 1.5-1.5*Sin(Pi/4)+.7} {
  Point{210, 188, 180, 168, 150, 138, 226};
}
Line(455) = {229, 230};
Line(456) = {230, 231};
Line(457) = {231, 232};
Line(458) = {232, 233};
Line(459) = {233, 234};
Line(460) = {234, 235};
Line(461) = {235, 236};
Line Loop(462) = {455, -448, 439, 447};
Plane Surface(463) = {462};
Line Loop(464) = {448, 456, -449, 337};
Plane Surface(465) = {464};
Line Loop(466) = {449, 457, -450, -401};
Plane Surface(467) = {466};
Line Loop(468) = {450, 458, -451, 227};
Plane Surface(469) = {468};
Line Loop(470) = {451, 459, -452, -404};
Plane Surface(471) = {470};
Line Loop(472) = {452, 460, -453, 117};
Plane Surface(473) = {472};
Line Loop(474) = {453, 461, -454, -435};
Plane Surface(475) = {474};

Transfinite Line{409,411,413,415,417,419,437,431} = .5/dz+1;
Transfinite Line{410,414,418,456,458,460} = pc+1;
Transfinite Line{401,402,412,404,403,416,457,459} = dm+1;
Transfinite Line{447,448,449,450,451,452,453,454} = .7/dz+1;
Transfinite Surface "*";
Recombine Surface "*";

Transfinite Line{436} = pch+1;
Transfinite Line{438} = pch+1 Using Bump .1;
Transfinite Line{455,439,440,430,461,435,433,432} = 1.5 / dz;
Transfinite Surface "*";
Recombine Surface "*";

Extrude {3.25, 0, 0} {
  Surface{442, 463, 465, 356, 378, 334, 312, 400, 421, 444, 406, 467, 423, 425, 290, 268, 246, 469, 202, 224, 471, 408, 427, 158, 136, 473, 92, 180, 429, 114, 475, 446, 434};
  Layers{3.25/dz+1};
  Recombine;
}
Extrude {4, 0, 0} {
  Surface{497, 519, 695, 673, 651, 585, 607, 563, 739, 541, 629, 717, 761, 827, 849, 871, 893, 805, 783, 915, 937, 959, 981, 1003, 1025, 1069, 1047, 1135, 1091, 1113, 1201, 1179, 1157};
  Layers{pch*4/3.2};
  Recombine;
}

Extrude {.5, 0, 0} {
  Surface{1223, 1245, 1333, 1421, 1377, 1355, 1311, 1267, 1289, 1487, 1465, 1443, 1575, 1399, 1509, 1531, 1553, 1597, 1619, 1641, 1663, 1685, 1707, 1839, 1861, 1729, 1773, 1751, 1795, 1817, 1927, 1905, 1883};
  Layers{.5/dz+1};
  Recombine;
}
Extrude {4, 0, 0} {
  Surface{1949, 1971, 1993, 2015, 2037, 2059, 2081, 2125, 2103, 2191, 2235, 2257, 2147, 2169, 2301, 2279, 2213, 2323, 2367, 2345, 2433, 2411, 2389, 2565, 2543, 2499, 2477, 2455, 2521, 2587, 2631, 2609, 2653};
  Layers{pch*4/3.2};
  Recombine;
}
Extrude {3.25, 0, 0} {
  Surface{2697, 2675, 2851, 2829, 2807, 2719, 2763, 2785, 2741, 2873, 2895, 2961, 2939, 3093, 3071, 2917, 3027, 3049, 3005, 2983, 3159, 3137, 3115, 3247, 3269, 3225, 3181, 3203, 3291, 3313, 3357, 3335, 3379};
  Layers{3.25/dz+1};
  Recombine;
}

Extrude {0, -43, 11-9.41} {
  Surface{1210, 2662};
  Layers{43/dx+1};
  Recombine;
}

Line(4150) = {1156, 1162};
Line(4151) = {1160, 1161};
Line Loop(4152) = {4150, -4129, -4151, -4109};
Plane Surface(4153) = {4152};

Transfinite Line{4150,4151} = .5/dz+1;
Transfinite Surface "*";
Recombine Surface "*";


Extrude {0, -7, 0} {
  Surface{4127, 4153, 4149};
  Layers{7/dz+1};
  Recombine;
}
Extrude {5, 0, 0} {
  Surface{4214};
  Layers{5/dz+1};
  Recombine;
}


Line(4242) = {110, 11};
Line(4243) = {16, 2};
Line(4244) = {126, 33};
Line(4245) = {70, 5};
Line Loop(4246) = {4244, -30, -4242, -65};
Plane Surface(4247) = {4246};
Line Loop(4248) = {46, 4243, 1, -4245};
Plane Surface(4249) = {4248};

Extrude {0, -20, 0} {
  Point{3, 4};
}
Line(4252) = {1208, 1207};
Extrude {0, 20, 0} {
  Point{93, 88};
}
Line(4256) = {1210, 1209};
Line Loop(4257) = {4253, -4256, -4254, 54};
Plane Surface(4258) = {4257};
Line Loop(4259) = {3, 4250, -4252, -4251};
Plane Surface(4260) = {4259};
Extrude {0, 0, 14-11.74} {
  Point{1210, 88, 110, 11, 16, 2, 3, 1207};
}
Line(4269) = {1211, 1212};
Line(4270) = {1212, 1213};
Line(4271) = {1213, 1214};
Line(4272) = {1214, 1215};
Line(4273) = {1215, 1216};
Line(4274) = {1216, 1217};
Line(4275) = {1217, 1218};
Line Loop(4276) = {4269, -4262, 4254, 4261};
Plane Surface(4277) = {4276};
Line Loop(4278) = {4270, -4263, -59, 4262};
Plane Surface(4279) = {4278};
Line Loop(4280) = {4271, -4264, -4242, 4263};
Plane Surface(4281) = {4280};
Line Loop(4282) = {4272, -4265, -25, 4264};
Plane Surface(4283) = {4282};
Line Loop(4284) = {4273, -4266, -4243, 4265};
Plane Surface(4285) = {4284};
Line Loop(4286) = {4, 4266, 4274, -4267};
Plane Surface(4287) = {4286};
Line Loop(4288) = {4267, 4275, -4268, -4250};
Plane Surface(4289) = {4288};
Extrude {0, 0, -(1.5-1.5*Sin(Pi/4)+.5)} {
  Point{1209, 93, 126, 33, 70, 5, 4, 1208};
}
Line(4298) = {1219, 1220};
Line(4299) = {1220, 1221};
Line(4300) = {1221, 1222};
Line(4301) = {1222, 1223};
Line(4302) = {1223, 1224};
Line(4303) = {1224, 1225};
Line(4304) = {1225, 1226};
Line Loop(4305) = {4298, -4291, 4253, 4290};
Plane Surface(4306) = {4305};
Line Loop(4307) = {4299, -4292, -70, 4291};
Plane Surface(4308) = {4307};
Line Loop(4309) = {4292, 4300, -4293, -4244};
Plane Surface(4310) = {4309};
Line Loop(4311) = {4293, 4301, -4294, -41};
Plane Surface(4312) = {4311};
Line Loop(4313) = {4294, 4302, -4295, -4245};
Plane Surface(4314) = {4313};
Line Loop(4315) = {2, 4296, -4303, -4295};
Plane Surface(4316) = {4315};
Line Loop(4317) = {4304, -4297, -4251, 4296};
Plane Surface(4318) = {4317};

Transfinite Line{4270,4272,4274,4299,4301,4303} = pc+1;
Transfinite Line{4252,4256} = pch+1;
Transfinite Surface "*";
Recombine Surface "*";

Extrude {-40, 0, 0} {
  Surface{4277, 4258, 4306, 4308, 67, 52, 47, 57, 4279, 62, 4281, 4247, 4310, 28, 4283, 33, 23, 38, 4312, 4249, 43, 4314, 4285, 14, 4287, 18, 16, 22, 4316, 4260, 4289, 20, 4318};
  Layers{10};
  Recombine;
}


Physical Surface("outlet") = {4241};
Physical Surface("inlet") = {4340, 4384, 4362, 4472, 4450, 4516, 4428, 4406, 4626, 4560, 4670, 4802, 4824, 4846, 4956, 4868, 4692, 4538, 4604, 4736, 4890, 4978, 5000, 5044, 4758, 4714, 4648, 4494, 4934, 4912, 5022, 4780, 4582};
Physical Volume("mesh") = {187, 188, 189, 195, 194, 197, 201, 203, 209, 211, 212, 218, 213, 210, 206, 202, 207, 198, 200, 196, 193, 192, 191, 190, 199, 204, 205, 208, 215, 214, 219, 216, 217, 14, 12, 13, 11, 15, 9, 6, 8, 7, 10, 5, 4, 1, 2, 3, 186, 185, 184, 183, 181, 182, 48, 47, 46, 41, 40, 45, 42, 39, 37, 35, 34, 31, 26, 22, 21, 20, 23, 24, 25, 28, 29, 30, 38, 43, 44, 36, 80, 33, 79, 32, 78, 77, 19, 71, 66, 67, 16, 61, 53, 52, 51, 27, 74, 76, 72, 114, 18, 70, 68, 105, 65, 106, 17, 62, 60, 104, 59, 99, 55, 100, 54, 91, 49, 88, 90, 89, 73, 75, 81, 112, 113, 69, 110, 146, 109, 145, 102, 64, 108, 63, 111, 147, 107, 103, 57, 144, 143, 98, 97, 101, 58, 142, 94, 141, 56, 96, 92, 135, 93, 50, 132, 87, 134, 84, 127, 82, 121, 123, 122, 140, 95, 136, 133, 180, 85, 131, 86, 126, 128, 171, 83, 124, 170, 120, 117, 161, 115, 160, 150, 151, 152, 165, 116, 119, 118, 125, 172, 130, 129, 137, 139, 138, 178, 174, 175, 177, 179, 176, 173, 168, 167, 166, 162, 169, 164, 163, 159, 157, 155, 153, 149, 148, 154, 156, 158};

